Data handling using the Tidyverse
…
This section will show you three simple functions that you can use to
extract just the data that you need.

filter()

filter() is a function that subsets rows, keeping only
those that we are interested in. We can tell the function what rows we
are interested in by giving it a “condition” to filter by. For example
to filter flights that originate from JFK we would use:

filter(flights, origin == 'JFK')

## # A tibble: 111,279 × 19
##     year month   day dep_time sched_dep_time dep_delay arr_time sched_arr_time
##    <dbl> <dbl> <dbl>    <dbl>          <dbl>     <dbl>    <dbl>          <dbl>
##  1  2013     1     1      542            540         2      923            850
##  2  2013     1     1      544            545        -1     1004           1022
##  3  2013     1     1      557            600        -3      838            846
##  4  2013     1     1      558            600        -2      849            851
##  5  2013     1     1      558            600        -2      853            856
##  6  2013     1     1      558            600        -2      924            917
##  7  2013     1     1      559            559         0      702            706
##  8  2013     1     1      606            610        -4      837            845
##  9  2013     1     1      611            600        11      945            931
## 10  2013     1     1      613            610         3      925            921
## # … with 111,269 more rows, and 11 more variables: arr_delay <dbl>,
## #   carrier <chr>, flight <dbl>, tailnum <chr>, origin <chr>, dest <chr>,
## #   air_time <dbl>, distance <dbl>, hour <dbl>, minute <dbl>, time_hour <dttm>
…
The filter() function can be supplied with more than one
conditional. For example if we want to find flights between JFK and
Miami airport (MIA) that departed between 6 and 8 in the morning, we can
string all of those together using the “&” (and) and “|” (or)
symbols.

filter(flights, origin == "JFK" & dest == "MIA" & dep_time > 600 & dep_time < 800)

## # A tibble: 574 × 19
##     year month   day dep_time sched_dep_time dep_delay arr_time sched_arr_time
##    <dbl> <dbl> <dbl>    <dbl>          <dbl>     <dbl>    <dbl>          <dbl>
##  1  2013     1     1      759            800        -1     1057           1127
##  2  2013     1     2      707            715        -8     1022           1045
##  3  2013     1     2      757            800        -3     1058           1127
##  4  2013     1     3      710            715        -5     1042           1045
##  5  2013     1     3      757            800        -3     1109           1124
##  6  2013     1     4      712            715        -3     1022           1045
##  7  2013     1     4      756            800        -4     1109           1124
##  8  2013     1     5      710            715        -5     1024           1045
##  9  2013     1     5      754            800        -6     1101           1124
## 10  2013     1     6      708            715        -7     1057           1045
## # … with 564 more rows, and 11 more variables: arr_delay <dbl>, carrier <chr>,
## #   flight <dbl>, tailnum <chr>, origin <chr>, dest <chr>, air_time <dbl>,
## #   distance <dbl>, hour <dbl>, minute <dbl>, time_hour <dttm>
Exercise 1

How many flights departed JFK in February?

How many flights departed LGA airport in June and July
combined?

select()

The select() function is similar to
filter(), but it subsets columns instead of rows.

select(flights, tailnum, air_time, distance)

## # A tibble: 336,776 × 3
##    tailnum air_time distance
##    <chr>      <dbl>    <dbl>
##  1 N14228       227     1400
##  2 N24211       227     1416
##  3 N619AA       160     1089
##  4 N804JB       183     1576
##  5 N668DN       116      762
##  6 N39463       150      719
##  7 N516JB       158     1065
##  8 N829AS        53      229
##  9 N593JB       140      944
## 10 N3ALAA       138      733
## # … with 336,766 more rows

The first argument we supply to select() is the name of
the data frame, all subsequent arguments are the names of the columns we
want to keep. The order of the columns in the output will be the order
you supply them to the function.

select() is quite flexible in how you specify the column
names. You can give it the column number and/or the column name, and the
column names do not have to be in quotes:

select(flights, 1:3, 7, origin, "dep_delay", arr_delay)

## # A tibble: 336,776 × 7
##     year month   day arr_time origin dep_delay arr_delay
##    <dbl> <dbl> <dbl>    <dbl> <chr>      <dbl>     <dbl>
##  1  2013     1     1      830 EWR            2        11
##  2  2013     1     1      850 LGA            4        20
##  3  2013     1     1      923 JFK            2        33
##  4  2013     1     1     1004 JFK           -1       -18
##  5  2013     1     1      812 LGA           -6       -25
##  6  2013     1     1      740 EWR           -4        12
##  7  2013     1     1      913 EWR           -5        19
##  8  2013     1     1      709 LGA           -3       -14
##  9  2013     1     1      838 JFK           -3        -8
## 10  2013     1     1      753 LGA           -2         8
## # … with 336,766 more rows

Note that this is quite ugly code, especially the mix of quoted and
unquoted column names!

You can also select columns that are in a character vector:

a <- c("origin", "dest")
select(flights, a)

## Note: Using an external vector in selections is ambiguous.
## ℹ Use `all_of(a)` instead of `a` to silence this message.
## ℹ See <https://tidyselect.r-lib.org/reference/faq-external-vector.html>.
## This message is displayed once per session.

## # A tibble: 336,776 × 2
##    origin dest 
##    <chr>  <chr>
##  1 EWR    IAH  
##  2 LGA    IAH  
##  3 JFK    MIA  
##  4 JFK    BQN  
##  5 LGA    ATL  
##  6 EWR    ORD  
##  7 EWR    FLL  
##  8 LGA    IAD  
##  9 JFK    MCO  
## 10 LGA    ORD  
## # … with 336,766 more rows
…
mutate()

Often what we are interested in is not explicitly given in our data
but can be calculated using values from several columns. We can create
new columns in our data frame using the mutate() function.
For example, let’s say that we are interested in how fast an airplane
was going. We can calculate the speed using information from the
“distance” and “air_time” columns and store it in a new column
“speed”:

mutate(flights, speed = distance / air_time)

## # A tibble: 336,776 × 20
##     year month   day dep_time sched_dep_time dep_delay arr_time sched_arr_time
##    <dbl> <dbl> <dbl>    <dbl>          <dbl>     <dbl>    <dbl>          <dbl>
##  1  2013     1     1      517            515         2      830            819
##  2  2013     1     1      533            529         4      850            830
##  3  2013     1     1      542            540         2      923            850
##  4  2013     1     1      544            545        -1     1004           1022
##  5  2013     1     1      554            600        -6      812            837
##  6  2013     1     1      554            558        -4      740            728
##  7  2013     1     1      555            600        -5      913            854
##  8  2013     1     1      557            600        -3      709            723
##  9  2013     1     1      557            600        -3      838            846
## 10  2013     1     1      558            600        -2      753            745
## # … with 336,766 more rows, and 12 more variables: arr_delay <dbl>,
## #   carrier <chr>, flight <dbl>, tailnum <chr>, origin <chr>, dest <chr>,
## #   air_time <dbl>, distance <dbl>, hour <dbl>, minute <dbl>, time_hour <dttm>,
## #   speed <dbl>
…
The beauty of the pipe is that we can string together multiple
functions like this, to make a chain of pipes that is as long as we
need. So the “tidyverse” way using pipes looks like:

z <- flights %>%                                             # take the flight data, and then
  filter(origin == "JFK") %>%                                # filter that data, and then
  select(year, month, day, tailnum, air_time, distance) %>%  # select the columns we need, and then
  mutate(speed = distance / air_time)                        # mutate to create a new column
z

## # A tibble: 111,279 × 7
##     year month   day tailnum air_time distance speed
##    <dbl> <dbl> <dbl> <chr>      <dbl>    <dbl> <dbl>
##  1  2013     1     1 N619AA       160     1089  6.81
##  2  2013     1     1 N804JB       183     1576  8.61
##  3  2013     1     1 N593JB       140      944  6.74
##  4  2013     1     1 N793JB       149     1028  6.90
##  5  2013     1     1 N657JB       158     1005  6.36
##  6  2013     1     1 N29129       345     2475  7.17
##  7  2013     1     1 N708JB        44      187  4.25
##  8  2013     1     1 N3739P       128      760  5.94
##  9  2013     1     1 N532UA       366     2586  7.07
## 10  2013     1     1 N635JB       175     1074  6.14
## # … with 111,269 more rows
…
Exercise 2

Look at the data set “diamonds” that comes built-in to the ggplot2
package (part of the tidyverse suite):

Find the diamond with the highest price/volume ratio - how many
carats is it? Try to write your code using pipes!

diamonds

## # A tibble: 53,940 × 10
##    carat cut       color clarity depth table price     x     y     z
##    <dbl> <ord>     <ord> <ord>   <dbl> <dbl> <int> <dbl> <dbl> <dbl>
##  1  0.23 Ideal     E     SI2      61.5    55   326  3.95  3.98  2.43
##  2  0.21 Premium   E     SI1      59.8    61   326  3.89  3.84  2.31
##  3  0.23 Good      E     VS1      56.9    65   327  4.05  4.07  2.31
##  4  0.29 Premium   I     VS2      62.4    58   334  4.2   4.23  2.63
##  5  0.31 Good      J     SI2      63.3    58   335  4.34  4.35  2.75
##  6  0.24 Very Good J     VVS2     62.8    57   336  3.94  3.96  2.48
##  7  0.24 Very Good I     VVS1     62.3    57   336  3.95  3.98  2.47
##  8  0.26 Very Good H     SI1      61.9    55   337  4.07  4.11  2.53
##  9  0.22 Fair      E     VS2      65.1    61   337  3.87  3.78  2.49
## 10  0.23 Very Good H     VS1      59.4    61   338  4     4.05  2.39
## # … with 53,930 more rows
…
The information that links this and the flights data is the column
“tailnum”. Let’s connect the “origin” column in the flights data to all
the data in the planes data, using the “tailnum” column that appears in
both data sets.

flights %>% 
  select(origin, tailnum) %>% 
  left_join(planes, by = "tailnum")

## # A tibble: 336,776 × 10
##    origin tailnum  year type       manufacturer model engines seats speed engine
##    <chr>  <chr>   <dbl> <chr>      <chr>        <chr>   <dbl> <dbl> <dbl> <chr> 
##  1 EWR    N14228   1999 Fixed win… BOEING       737-…       2   149    NA Turbo…
##  2 LGA    N24211   1998 Fixed win… BOEING       737-…       2   149    NA Turbo…
##  3 JFK    N619AA   1990 Fixed win… BOEING       757-…       2   178    NA Turbo…
##  4 JFK    N804JB   2012 Fixed win… AIRBUS       A320…       2   200    NA Turbo…
##  5 LGA    N668DN   1991 Fixed win… BOEING       757-…       2   178    NA Turbo…
##  6 EWR    N39463   2012 Fixed win… BOEING       737-…       2   191    NA Turbo…
##  7 EWR    N516JB   2000 Fixed win… AIRBUS INDU… A320…       2   200    NA Turbo…
##  8 LGA    N829AS   1998 Fixed win… CANADAIR     CL-6…       2    55    NA Turbo…
##  9 JFK    N593JB   2004 Fixed win… AIRBUS       A320…       2   200    NA Turbo…
## 10 LGA    N3ALAA     NA <NA>       <NA>         <NA>       NA    NA    NA <NA>  
## # … with 336,766 more rows
…
swe_den_population <- world_bank_pop %>% 
  filter(indicator == "SP.POP.TOTL") %>%      # filter to keep only total population information
  pivot_longer(cols = -c(country, indicator), # pivot all columns in the data except country and indicator 
               names_to = "year",             # specify the name of the key column
               values_to = "population") %>%  # specify the name of the value column
  filter(country %in% c("SWE", "DNK")) %>%    # filter to keep only Sweden and Denmark
  mutate(year = as.numeric(year))             # tell R that the year column contains numbers, not strings

swe_den_population

## # A tibble: 36 × 4
##    country indicator    year population
##    <chr>   <chr>       <dbl>      <dbl>
##  1 DNK     SP.POP.TOTL  2000    5339616
##  2 DNK     SP.POP.TOTL  2001    5358783
##  3 DNK     SP.POP.TOTL  2002    5375931
##  4 DNK     SP.POP.TOTL  2003    5390574
##  5 DNK     SP.POP.TOTL  2004    5404523
##  6 DNK     SP.POP.TOTL  2005    5419432
##  7 DNK     SP.POP.TOTL  2006    5437272
##  8 DNK     SP.POP.TOTL  2007    5461438
##  9 DNK     SP.POP.TOTL  2008    5493621
## 10 DNK     SP.POP.TOTL  2009    5523095
## # … with 26 more rows
…
Use str_sub() to extract substrings (notice that this is
done inside a mutate()):

artwork %>% 
  mutate(title_short = str_sub(title, 1, 10)) %>% # new column that contains characters 1-10 of title
  select(year, artist, title_short) 

## # A tibble: 69,201 × 3
##     year artist         title_short
##    <dbl> <chr>          <chr>      
##  1    NA Blake, Robert  A Figure B 
##  2    NA Blake, Robert  Two Drawin 
##  3  1785 Blake, Robert  The Preach 
##  4    NA Blake, Robert  Six Drawin 
##  5  1826 Blake, William The Circle 
##  6  1826 Blake, William Ciampolo t 
##  7  1826 Blake, William The Baffle 
##  8  1826 Blake, William The Six-Fo 
##  9  1826 Blake, William The Serpen 
## 10  1826 Blake, William The Pit of 
## # … with 69,191 more rows
…
